{
  "title": "Dashboard",
  "hits": 0,
  "description": "",
  "panelsJSON": "[{\"col\":1,\"id\":\"baked_goods\",\"panelIndex\":1,\"row\":1,\"size_x\":6,\"size_y\":3,\"type\":\"visualization\"},{\"col\":7,\"id\":\"eaten_full\",\"panelIndex\":2,\"row\":1,\"size_x\":6,\"size_y\":3,\"type\":\"visualization\"},{\"col\":1,\"id\":\"baked_goods_time\",\"panelIndex\":3,\"row\":4,\"size_x\":6,\"size_y\":3,\"type\":\"visualization\"},{\"size_x\":6,\"size_y\":3,\"panelIndex\":4,\"type\":\"visualization\",\"id\":\"eaten_full_time\",\"col\":7,\"row\":4}]",
  "optionsJSON": "{\"darkTheme\":false}",
  "uiStateJSON": "{}",
  "version": 1,
  "timeRestore": false,
  "kibanaSavedObjectMeta": {
    "searchSourceJSON": "{\"filter\":[{\"query\":{\"match_all\":{}}}],\"highlightAll\":true,\"version\":true}"
  }
}
