{
  "title": "Baked goods per eaten/full",
  "visState": "{\"title\":\"Baked goods per eaten/full\",\"type\":\"pie\",\"params\":{\"addLegend\":true,\"addTooltip\":true,\"isDonut\":false,\"legendPosition\":\"right\"},\"aggs\":[{\"id\":\"1\",\"enabled\":true,\"type\":\"count\",\"schema\":\"metric\",\"params\":{}},{\"id\":\"2\",\"enabled\":true,\"type\":\"filters\",\"schema\":\"segment\",\"params\":{\"filters\":[{\"input\":{\"query\":{\"query_string\":{\"query\":\"log:nom\"}}},\"label\":\"Was Eaten\"},{\"input\":{\"query\":{\"query_string\":{\"query\":\"log:full\"}}},\"label\":\"Was Full\"}]}},{\"id\":\"3\",\"enabled\":true,\"type\":\"filters\",\"schema\":\"segment\",\"params\":{\"filters\":[{\"input\":{\"query\":{\"query_string\":{\"query\":\"log:COOKIE\"}}},\"label\":\"Cookie\"},{\"input\":{\"query\":{\"query_string\":{\"query\":\"log:fruit\"}}},\"label\":\"Fruit Cake\"},{\"input\":{\"query\":{\"query_string\":{\"query\":\"log:pumpkin\"}}},\"label\":\"Pumpkin Pie\"}]}}],\"listeners\":{}}",
  "uiStateJSON": "{}",
  "description": "",
  "version": 1,
  "kibanaSavedObjectMeta": {
    "searchSourceJSON": "{\"index\":\"app-*\",\"query\":{\"query_string\":{\"analyze_wildcard\":true,\"query\":\"log:COOKIE OR log:fruit OR log:pumpkin\"}},\"filter\":[]}"
  }
}
